{
  "resnet_v1_50_108": [
    {
      "i": 2,
      "j": 8,
      "avx": "Avx512",
      "nnz_zero_filled": 7290,
      "permuted": false
    },
    {
      "i": 2,
      "j": 8,
      "avx": "Avx512",
      "nnz_zero_filled": 7188,
      "permuted": true
    }
  ],
  "bcsstk34": [
    {
      "i": 6,
      "j": 4,
      "avx": "Avx512",
      "nnz_zero_filled": 30294,
      "permuted": false
    },
    {
      "i": 5,
      "j": 4,
      "avx": "Avx512",
      "nnz_zero_filled": 29245,
      "permuted": true
    }
  ],
  "resnet_v1_50_88": [
    {
      "i": 5,
      "j": 4,
      "avx": "Avx512",
      "nnz_zero_filled": 944410,
      "permuted": false
    },
    {
      "i": 6,
      "j": 4,
      "avx": "Avx512",
      "nnz_zero_filled": 697008,
      "permuted": true
    }
  ],
  "bcsstk27": [
    {
      "i": 5,
      "j": 4,
      "avx": "Avx512",
      "nnz_zero_filled": 70620,
      "permuted": false
    },
    {
      "i": 6,
      "j": 4,
      "avx": "Avx512",
      "nnz_zero_filled": 57822,
      "permuted": true
    }
  ],
  "flowmeter0": [
    {
      "i": 4,
      "j": 4,
      "avx": "Avx512",
      "nnz_zero_filled": 246756,
      "permuted": false
    },
    {
      "i": 6,
      "j": 4,
      "avx": "Avx512",
      "nnz_zero_filled": 178380,
      "permuted": true
    }
  ],
  "human_gene1": [
    {
      "i": 2,
      "j": 2,
      "avx": "Avx512",
      "nnz_zero_filled": 43367232,
      "permuted": false
    },
    {
      "i": 6,
      "j": 4,
      "avx": "Avx512",
      "nnz_zero_filled": 41681658,
      "permuted": true
    }
  ],
  "Trec12": [
    {
      "i": 6,
      "j": 4,
      "avx": "Avx512",
      "nnz_zero_filled": 366840,
      "permuted": false
    },
    {
      "i": 6,
      "j": 4,
      "avx": "Avx512",
      "nnz_zero_filled": 340716,
      "permuted": true
    }
  ],
  "S10PI_n": [
    {
      "i": 3,
      "j": 4,
      "avx": "Avx512",
      "nnz_zero_filled": 3714,
      "permuted": false
    },
    {
      "i": 4,
      "j": 4,
      "avx": "Avx512",
      "nnz_zero_filled": 4240,
      "permuted": true
    }
  ],
  "resnet_v1_50_104": [
    {
      "i": 2,
      "j": 8,
      "avx": "Avx512",
      "nnz_zero_filled": 196830,
      "permuted": false
    },
    {
      "i": 2,
      "j": 8,
      "avx": "Avx512",
      "nnz_zero_filled": 189726,
      "permuted": true
    }
  ],
  "resnet_v1_50_94": [
    {
      "i": 2,
      "j": 8,
      "avx": "Avx512",
      "nnz_zero_filled": 290326,
      "permuted": false
    },
    {
      "i": 4,
      "j": 4,
      "avx": "Avx512",
      "nnz_zero_filled": 439956,
      "permuted": true
    }
  ],
  "nemeth02": [
    {
      "i": 12,
      "j": 2,
      "avx": "Avx512",
      "nnz_zero_filled": 627708,
      "permuted": false
    },
    {
      "i": 13,
      "j": 2,
      "avx": "Avx512",
      "nnz_zero_filled": 700752,
      "permuted": true
    }
  ],
  "resnet_v1_50_100": [
    {
      "i": 2,
      "j": 8,
      "avx": "Avx512",
      "nnz_zero_filled": 290568,
      "permuted": false
    },
    {
      "i": 6,
      "j": 4,
      "avx": "Avx512",
      "nnz_zero_filled": 572988,
      "permuted": true
    }
  ],
  "resnet_v1_50_90": [
    {
      "i": 2,
      "j": 8,
      "avx": "Avx512",
      "nnz_zero_filled": 197836,
      "permuted": false
    },
    {
      "i": 2,
      "j": 8,
      "avx": "Avx512",
      "nnz_zero_filled": 190694,
      "permuted": true
    }
  ],
  "c8_mat11": [
    {
      "i": 6,
      "j": 4,
      "avx": "Avx512",
      "nnz_zero_filled": 6206310,
      "permuted": false
    },
    {
      "i": 6,
      "j": 4,
      "avx": "Avx512",
      "nnz_zero_filled": 2838024,
      "permuted": true
    }
  ],
  "pds10": [
    {
      "i": 5,
      "j": 4,
      "avx": "Avx512",
      "nnz_zero_filled": 595510,
      "permuted": false
    },
    {
      "i": 5,
      "j": 4,
      "avx": "Avx512",
      "nnz_zero_filled": 450440,
      "permuted": true
    }
  ],
  "Goodwin_023": [
    {
      "i": 12,
      "j": 2,
      "avx": "Avx512",
      "nnz_zero_filled": 480324,
      "permuted": false
    },
    {
      "i": 6,
      "j": 4,
      "avx": "Avx512",
      "nnz_zero_filled": 290436,
      "permuted": true
    }
  ],
  "heart2": [
    {
      "i": 6,
      "j": 4,
      "avx": "Avx512",
      "nnz_zero_filled": 823920,
      "permuted": false
    },
    {
      "i": 14,
      "j": 2,
      "avx": "Avx512",
      "nnz_zero_filled": 789978,
      "permuted": true
    }
  ],
  "resnet_v1_50_96": [
    {
      "i": 2,
      "j": 8,
      "avx": "Avx512",
      "nnz_zero_filled": 446464,
      "permuted": false
    },
    {
      "i": 6,
      "j": 4,
      "avx": "Avx512",
      "nnz_zero_filled": 754008,
      "permuted": true
    }
  ],
  "wiki-RfA": [
    {
      "i": 1,
      "j": 4,
      "avx": "Avx512",
      "nnz_zero_filled": 188077,
      "permuted": false
    },
    {
      "i": 4,
      "j": 4,
      "avx": "Avx512",
      "nnz_zero_filled": 494820,
      "permuted": true
    }
  ],
  "resnet_v1_50_92": [
    {
      "i": 2,
      "j": 8,
      "avx": "Avx512",
      "nnz_zero_filled": 394680,
      "permuted": false
    },
    {
      "i": 2,
      "j": 8,
      "avx": "Avx512",
      "nnz_zero_filled": 376712,
      "permuted": true
    }
  ],
  "s3rmt3m3": [
    {
      "i": 6,
      "j": 4,
      "avx": "Avx512",
      "nnz_zero_filled": 241926,
      "permuted": false
    },
    {
      "i": 6,
      "j": 4,
      "avx": "Avx512",
      "nnz_zero_filled": 210438,
      "permuted": true
    }
  ],
  "resnet_v1_50_98": [
    {
      "i": 2,
      "j": 8,
      "avx": "Avx512",
      "nnz_zero_filled": 197522,
      "permuted": false
    },
    {
      "i": 2,
      "j": 8,
      "avx": "Avx512",
      "nnz_zero_filled": 189766,
      "permuted": true
    }
  ],
  "resnet_v1_50_102": [
    {
      "i": 2,
      "j": 8,
      "avx": "Avx512",
      "nnz_zero_filled": 446492,
      "permuted": false
    },
    {
      "i": 4,
      "j": 4,
      "avx": "Avx512",
      "nnz_zero_filled": 427424,
      "permuted": true
    }
  ],
  "ACTIVSg10K": [
    {
      "i": 4,
      "j": 4,
      "avx": "Avx512",
      "nnz_zero_filled": 428932,
      "permuted": false
    },
    {
      "i": 6,
      "j": 4,
      "avx": "Avx512",
      "nnz_zero_filled": 265596,
      "permuted": true
    }
  ],
  "dwt_503": [
    {
      "i": 5,
      "j": 4,
      "avx": "Avx512",
      "nnz_zero_filled": 15245,
      "permuted": false
    },
    {
      "i": 4,
      "j": 4,
      "avx": "Avx512",
      "nnz_zero_filled": 10272,
      "permuted": true
    }
  ]
}
