Computation,Duration,PeakPerf
UKERNJ=1 BK=2 Bands(BI=1),0.33,9.42   
UKERNJ=1 BK=2 Blocks(BI=1 BK=2 NBLOCS=3672),0.31,21.61  
1138_bus UKERNJ=2 BK=2 Bands(BI=1),0.31,12.09  
UKERNJ=2 BK=2 Blocks(BI=1 BK=2 NBLOCS=3672),0.27,26.49  
1138_bus UKERNJ=3 BK=2 Bands(BI=1),0.30,13.75  
UKERNJ=3 BK=2 Blocks(BI=1 BK=2 NBLOCS=3672),0.29,25.86  
1138_bus UKERNJ=4 BK=2 Bands(BI=1),0.28,14.08  
UKERNJ=4 BK=2 Blocks(BI=1 BK=2 NBLOCS=3672),0.27,25.70  
1138_bus UKERNJ=5 BK=2 Bands(BI=1),0.40,10.56  
UKERNJ=5 BK=2 Blocks(BI=1 BK=2 NBLOCS=3672),0.30,25.96  
1138_bus UKERNJ=6 BK=2 Bands(BI=1),0.29,13.06  
UKERNJ=6 BK=2 Blocks(BI=1 BK=2 NBLOCS=3672),0.29,24.37  
1138_bus UKERNJ=1 BK=2 Bands(BI=2),0.31,18.92  
UKERNJ=1 BK=2 Blocks(BI=2 BK=2 NBLOCS=2943),0.31,31.64  
1138_bus UKERNJ=2 BK=2 Bands(BI=2),0.28,24.03  
UKERNJ=2 BK=2 Blocks(BI=2 BK=2 NBLOCS=2943),0.28,37.09  
1138_bus UKERNJ=3 BK=2 Bands(BI=2),0.29,24.44  
UKERNJ=3 BK=2 Blocks(BI=2 BK=2 NBLOCS=2943),0.31,34.71  
1138_bus UKERNJ=4 BK=2 Bands(BI=2),0.28,25.21  
UKERNJ=4 BK=2 Blocks(BI=2 BK=2 NBLOCS=2943),0.28,37.25  
1138_bus UKERNJ=5 BK=2 Bands(BI=2),0.30,24.58  
UKERNJ=5 BK=2 Blocks(BI=2 BK=2 NBLOCS=2943),0.32,34.92  
1138_bus UKERNJ=6 BK=2 Bands(BI=2),0.31,21.55  
UKERNJ=6 BK=2 Blocks(BI=2 BK=2 NBLOCS=2943),0.34,30.63  
1138_bus UKERNJ=1 BK=2 Bands(BI=3),0.33,24.10  
UKERNJ=1 BK=2 Blocks(BI=3 BK=2 NBLOCS=2832),0.34,39.55  
1138_bus UKERNJ=2 BK=2 Bands(BI=3),0.30,29.54  
UKERNJ=2 BK=2 Blocks(BI=3 BK=2 NBLOCS=2832),0.32,42.66  
1138_bus UKERNJ=3 BK=2 Bands(BI=3),0.30,32.17  
UKERNJ=3 BK=2 Blocks(BI=3 BK=2 NBLOCS=2832),0.39,34.82  
1138_bus UKERNJ=4 BK=2 Bands(BI=3),0.30,28.28  
UKERNJ=4 BK=2 Blocks(BI=3 BK=2 NBLOCS=2832),0.38,32.10  
1138_bus UKERNJ=5 BK=2 Bands(BI=3),0.41,23.20  
UKERNJ=5 BK=2 Blocks(BI=3 BK=2 NBLOCS=2832),0.46,29.61  
1138_bus UKERNJ=6 BK=2 Bands(BI=3),0.41,21.29  
UKERNJ=6 BK=2 Blocks(BI=3 BK=2 NBLOCS=2832),0.57,23.67  
1138_bus UKERNJ=1 BK=2 Bands(BI=4),0.35,27.93  
UKERNJ=1 BK=2 Blocks(BI=4 BK=2 NBLOCS=2602),0.37,41.60  
1138_bus UKERNJ=2 BK=2 Bands(BI=4),0.35,31.43  
UKERNJ=2 BK=2 Blocks(BI=4 BK=2 NBLOCS=2602),0.37,43.40  
1138_bus UKERNJ=3 BK=2 Bands(BI=4),0.34,32.63  
UKERNJ=3 BK=2 Blocks(BI=4 BK=2 NBLOCS=2602),0.40,39.25  
1138_bus UKERNJ=4 BK=2 Bands(BI=4),0.35,28.63  
UKERNJ=4 BK=2 Blocks(BI=4 BK=2 NBLOCS=2602),0.42,33.40  
1138_bus UKERNJ=5 BK=2 Bands(BI=4),0.43,26.06  
UKERNJ=5 BK=2 Blocks(BI=4 BK=2 NBLOCS=2602),0.57,26.77  
1138_bus UKERNJ=6 BK=2 Bands(BI=4),0.40,26.06  
UKERNJ=6 BK=2 Blocks(BI=4 BK=2 NBLOCS=2602),0.54,25.78  
1138_bus UKERNJ=1 BK=2 Bands(BI=5),0.37,30.02  
UKERNJ=1 BK=2 Blocks(BI=5 BK=2 NBLOCS=2516),0.40,44.37  
1138_bus UKERNJ=2 BK=2 Bands(BI=5),0.33,37.45  
UKERNJ=2 BK=2 Blocks(BI=5 BK=2 NBLOCS=2516),0.41,41.26  
1138_bus UKERNJ=3 BK=2 Bands(BI=5),0.39,31.33  
UKERNJ=3 BK=2 Blocks(BI=5 BK=2 NBLOCS=2516),0.46,40.15  
1138_bus UKERNJ=4 BK=2 Bands(BI=5),0.39,29.24  
UKERNJ=4 BK=2 Blocks(BI=5 BK=2 NBLOCS=2516),0.48,34.13  
1138_bus UKERNJ=5 BK=2 Bands(BI=5),0.46,27.42  
UKERNJ=5 BK=2 Blocks(BI=5 BK=2 NBLOCS=2516),0.69,26.37  
1138_bus UKERNJ=6 BK=2 Bands(BI=5),0.45,27.57  
UKERNJ=6 BK=2 Blocks(BI=5 BK=2 NBLOCS=2516),0.62,26.06  
1138_bus UKERNJ=1 BK=2 Bands(BI=6),0.40,33.72  
UKERNJ=1 BK=2 Blocks(BI=6 BK=2 NBLOCS=2408),0.42,45.07  
1138_bus UKERNJ=2 BK=2 Bands(BI=6),0.38,34.86  
UKERNJ=2 BK=2 Blocks(BI=6 BK=2 NBLOCS=2408),0.44,42.56  
1138_bus UKERNJ=3 BK=2 Bands(BI=6),0.45,29.80  
UKERNJ=3 BK=2 Blocks(BI=6 BK=2 NBLOCS=2408),0.55,35.85  
1138_bus UKERNJ=4 BK=2 Bands(BI=6),0.44,28.69  
UKERNJ=4 BK=2 Blocks(BI=6 BK=2 NBLOCS=2408),0.53,33.23  
1138_bus UKERNJ=5 BK=2 Bands(BI=6),0.54,28.76  
UKERNJ=5 BK=2 Blocks(BI=6 BK=2 NBLOCS=2408),0.77,26.93  
1138_bus UKERNJ=6 BK=2 Bands(BI=6),0.48,28.21  
UKERNJ=6 BK=2 Blocks(BI=6 BK=2 NBLOCS=2408),0.70,26.63  

